Topic models
…
print(dtm_mpr)

## <<DocumentTermMatrix (documents: 74, terms: 5980)>>
## Non-/sparse entries: 72295/370225
## Sparsity           : 84%
## Maximal term length: 26
## Weighting          : term frequency (tf)

As can be seen from the output, there are almost 6000 terms over the 74 documents.

Although the object returned from this has a lot of information it it, the most important part is the actual document term matrix itself, giving counts of each term for each document, so the first few lines of it in long tidy format are:

tidy(dtm_mpr)

## # A tibble: 72,295 x 3
##    document           term   count
##    <chr>              <chr>  <dbl>
##  1 mpr-1995-05-15.pdf inflat   147
##  2 mpr-1995-11-20.pdf inflat    76
##  3 mpr-1996-05-20.pdf inflat   119
##  4 mpr-1996-11-20.pdf inflat    84
##  5 mpr-1997-05-20.pdf inflat    87
##  6 mpr-1997-11-20.pdf inflat   135
##  7 mpr-1998-05-13.pdf inflat   106
##  8 mpr-1998-11-16.pdf inflat    69
##  9 mpr-1999-05-19.pdf inflat    87
## 10 mpr-1999-11-17.pdf inflat   109
## # ... with 72,285 more rows
…
